MFClusHier — MFClusHier • MF
…
#>    <chr>  <chr> <chr>           <dbl> <dbl> <dbl>       <dbl> <dbl> <dbl> <dbl>
#>  1 Room W Pen A Litter 11        8.24     2     7        5.13     2     4     4
#>  2 Room W Pen A Litter 12        4.91     2     5        3.81     2     4     2
#>  3 Room W Pen B Litter 13        8.10     2     7        5.23     2     4     4
#>  4 Room W Pen B Litter 14        8.11     2     7        5.59     2     4     4
#>  5 Room W Pen C Litter 15        8.09     2     7        5.26     2     4     4
#>  6 Room W Pen C Litter 16        6.77     2     7        4.50     2     4     4
#>  7 Room Z Pen D Litter 17        5.58     2     7        4.26     2     4     4
#>  8 Room Z Pen D Litter 18        7.44     2     6        6.33     2     4     3
#>  9 Room Z Pen E Litter 19        7.98     2     7        4.58     2     4     4
#> 10 Room Z Pen E Litter 20        6.78     2     7        4.86     2     4     4
#> 11 Room Z Pen F Litter 21        6.82     2     7        5.36     2     4     4
#> 12 Room Z Pen F Litter 22        7.27     2     7        5.13     2     4     4
aCore$data
#> # A tibble: 48 × 5
#>    room   pen   litter    tgroup  resp
#>    <chr>  <chr> <chr>     <chr>  <dbl>
#>  1 Room W Pen A Litter 11 vac     5.63
#>  2 Room W Pen A Litter 11 vac     4.62
#>  3 Room W Pen A Litter 11 con     9.20
#>  4 Room W Pen A Litter 11 con     7.28
#>  5 Room W Pen A Litter 12 vac     3.76
#>  6 Room W Pen A Litter 12 vac     3.86
#>  7 Room W Pen A Litter 12 con     6.31
#>  8 Room W Pen A Litter 12 con     3.52
#>  9 Room W Pen B Litter 13 vac     4.36
#> 10 Room W Pen B Litter 13 vac     6.10
#> # ℹ 38 more rows
…
