MFhBoot — MFhBoot • MF
…
formula <- lung ~ tx + room / pen / litter
nboot <- 10000
boot.cluster <- TRUE
boot.unit <- TRUE
which.factors <- c("All", "room", "pen", "litter")

system.time(test1 <- MFhBoot(formula, a,
                            nboot = 10000,
                             boot.cluster = TRUE,
                             boot.unit = TRUE,
                             seed = 12345))
#>    user  system elapsed 
#>   1.845   0.015   1.860 
test1$bootmfh
#> # A tibble: 120,000 × 11
#>    bootID     w     u  n1n2 con_n vac_n con_medResp vac_medResp room   pen  
#>     <int> <dbl> <dbl> <int> <int> <int>       <dbl>       <dbl> <chr>  <chr>
#>  1      1     7     4     4     2     2        8.10        5.23 Room W Pen B
#>  2      1     7     4     4     2     2        6.82        5.36 Room Z Pen E
#>  3      1     7     4     4     2     2        6.77        4.50 Room Z Pen F
#>  4      1     7     4     4     2     2        8.11        5.59 Room Z Pen D
#>  5      1     6     3     4     2     2        7.44        6.33 Room Z Pen E
#>  6      1     7     4     4     2     2        7.44        6.33 Room Z Pen F
#>  7      1     7     4     4     2     2        5.58        4.26 Room Z Pen D
#>  8      1     7     4     4     2     2        7.98        4.58 Room W Pen A
#>  9      1     7     4     4     2     2        5.58        4.26 Room W Pen C
#> 10      1     7     4     4     2     2        6.82        5.36 Room Z Pen F
#> # ℹ 119,990 more rows
#> # ℹ 1 more variable: litter <chr>
…
