MFnestBoot — MFnestBoot • MF
…
formula <- lung ~ tx + room / pen / litter
nboot <- 10000
boot.cluster <- TRUE
boot.unit <- TRUE
which.factors <- c("All", "room", "pen", "litter")

#################

test1 <- MFhBoot(formula, a,
                 nboot = 10000,
                 boot.cluster = TRUE, boot.unit = TRUE, seed = 12345)
MFnestBoot(test1, c("All", "litter"))
#> Complete separation observed for variable(s): litter
#> $mfnest_details
#> # A tibble: 87,760 × 8
#> # Groups:   variable, level [13]
#>    variable level bootID     U  N1N2 con_N vac_N    MF
#>    <chr>    <chr>  <int> <dbl> <int> <int> <int> <dbl>
#>  1 All      All        1    47    48    24    24 0.958
#>  2 All      All        2    40    48    24    24 0.667
#>  3 All      All        3    44    48    24    24 0.833
#>  4 All      All        4    46    48    24    24 0.917
#>  5 All      All        5    44    48    24    24 0.833
#>  6 All      All        6    44    48    24    24 0.833
#>  7 All      All        7    46    48    24    24 0.917
#>  8 All      All        8    44    48    24    24 0.833
#>  9 All      All        9    48    48    24    24 1    
#> 10 All      All       10    48    48    24    24 1    
#> # ℹ 87,750 more rows
…
