…
#### Bootstrapping step output.

The bootstrapping stage is the most computationally intensive, so a user
may wish to bypass this step subsequently if the only change are values
being passed to the `which.factor` or `alpha` arguments. Access
bootstrapping step outputs using the **MFhBoot** field of the output
object. For example:

``` r
this_boot_mfh <- mfboot_multiple$MFhBoot
this_boot_mfh
```

    ## $bootmfh
    ## # A tibble: 120,000 × 11
    ##    bootID con_medResp con_n     w vac_medResp vac_n     u  n1n2 room   pen  
    ##     <int>       <dbl> <dbl> <dbl>       <dbl> <dbl> <dbl> <dbl> <chr>  <chr>
    ##  1      1        8.24     2     7        5.12     2     4     4 Room W Pen A
    ##  2      1        8.10     2     7        5.23     2     4     4 Room W Pen B
    ##  3      1        8.10     2     7        5.23     2     4     4 Room W Pen B
    ##  4      1        8.10     2     7        5.23     2     4     4 Room W Pen B
    ##  5      1        8.12     2     7        5.60     2     4     4 Room W Pen B
    ##  6      1        8.12     2     7        5.60     2     4     4 Room W Pen B
    ##  7      1        8.09     2     7        5.26     2     4     4 Room W Pen C
    ##  8      1        8.09     2     7        5.26     2     4     4 Room W Pen C
    ##  9      1        8.09     2     7        5.26     2     4     4 Room W Pen C
    ## 10      1        5.57     2     7        4.26     2     4     4 Room Z Pen D
    ## # ℹ 119,990 more rows
    ## # ℹ 1 more variable: litter <chr>
    ## 
    ## $clusters
    ##      room   pen    litter clusterID
    ## 1  Room W Pen A Litter 11         1
    ## 2  Room W Pen A Litter 12         2
    ## 3  Room W Pen B Litter 13         3
    ## 4  Room W Pen B Litter 14         4
…
- `x`: **MFhBoot** field output as from `MFClusBootHier`.
- `which.factor`: As above.
- `alpha`: As above.

For example:

``` r
MFnestBoot(this_boot_mfh, which.factor = c("pen", "All"), alpha = 0.1)
```

    ## Complete separation observed for variable(s): pen

    ## $mfnest_details
    ## # A tibble: 63,224 × 8
    ## # Groups:   variable, level [7]
    ##    variable level bootID     U  N1N2 con_N vac_N    MF
    ##    <chr>    <chr>  <int> <dbl> <dbl> <dbl> <dbl> <dbl>
    ##  1 All      All        1    47    48    24    24 0.958
    ##  2 All      All        2    44    48    24    24 0.833
    ##  3 All      All        3    39    46    23    24 0.696
    ##  4 All      All        4    43    46    23    24 0.870
    ##  5 All      All        5    37    40    20    24 0.85 
    ##  6 All      All        6    45    46    23    24 0.957
    ##  7 All      All        7    46    48    24    24 0.917
    ##  8 All      All        8    39    44    22    24 0.773
    ##  9 All      All        9    48    48    24    24 1    
    ## 10 All      All       10    41    44    22    24 0.864
    ## # ℹ 63,214 more rows
    ## 
    ## $mfnest_summary
…
